…
```
## Parsed with column specification:
## cols(
##   steps = col_integer(),
##   date = col_date(format = ""),
##   interval = col_integer()
## )
```

```r
df
```

```
## # A tibble: 17,568 x 3
##    steps date       interval
##    <int> <date>        <int>
##  1    NA 2012-10-01        0
##  2    NA 2012-10-01        5
##  3    NA 2012-10-01       10
##  4    NA 2012-10-01       15
##  5    NA 2012-10-01       20
##  6    NA 2012-10-01       25
##  7    NA 2012-10-01       30
##  8    NA 2012-10-01       35
##  9    NA 2012-10-01       40
## 10    NA 2012-10-01       45
## # ... with 17,558 more rows
```
…
Let's first create a new dataframe called `avg_steps_df` with the average number of steps per each time interval.  


```r
avg_steps_df <- df %>% 
    group_by(interval) %>% 
    summarise(avg_steps = mean(steps, na.rm = T))
best_interval_idx <- which.max(avg_steps_df$avg_steps)
best_interval <- avg_steps_df[best_interval_idx, ]
avg_steps_df
```

```
## # A tibble: 288 x 2
##    interval avg_steps
##       <int>     <dbl>
##  1        0    1.72  
##  2        5    0.340 
##  3       10    0.132 
##  4       15    0.151 
##  5       20    0.0755
##  6       25    2.09  
##  7       30    0.528 
##  8       35    0.868 
##  9       40    0     
## 10       45    1.47  
## # ... with 278 more rows
```
…
```r
clean_df <- df %>% 
    inner_join(avg_steps_df, by = "interval")
clean_df$steps = as.double(clean_df$steps)
clean_df %<>% 
    mutate(steps = if_else(is.na(steps), 
                           avg_steps, steps))
clean_df %<>% 
    select(-avg_steps)
clean_df
```

```
## # A tibble: 17,568 x 3
##     steps date       interval
##     <dbl> <date>        <int>
##  1 1.72   2012-10-01        0
##  2 0.340  2012-10-01        5
##  3 0.132  2012-10-01       10
##  4 0.151  2012-10-01       15
##  5 0.0755 2012-10-01       20
##  6 2.09   2012-10-01       25
##  7 0.528  2012-10-01       30
##  8 0.868  2012-10-01       35
##  9 0      2012-10-01       40
## 10 1.47   2012-10-01       45
## # ... with 17,558 more rows
```
…
Let's first create the new variable `day_of_week` containing the levels `weekday` and `weekend`, indicating whether the corresponding date is a weekday or weekend day.  


```r
clean_df$day_of_week <- weekdays(clean_df$date)
clean_df %<>% 
    mutate(day_of_week = if_else(day_of_week == "Saturday" | day_of_week == "Sunday", 
                                 "weekend", "weekday"))
clean_df$day_of_week <- as.factor(clean_df$day_of_week)
clean_df
```

```
## # A tibble: 17,568 x 4
##     steps date       interval day_of_week
##     <dbl> <date>        <int> <fct>      
##  1 1.72   2012-10-01        0 weekday    
##  2 0.340  2012-10-01        5 weekday    
##  3 0.132  2012-10-01       10 weekday    
##  4 0.151  2012-10-01       15 weekday    
##  5 0.0755 2012-10-01       20 weekday    
##  6 2.09   2012-10-01       25 weekday    
##  7 0.528  2012-10-01       30 weekday    
##  8 0.868  2012-10-01       35 weekday    
##  9 0      2012-10-01       40 weekday    
## 10 1.47   2012-10-01       45 weekday    
## # ... with 17,558 more rows
```
…
